lab_3/lab_3.sim/sim_1/behav/xsim/simulate.log
Time resolution is 1 ps
 
***************************
   CECS 341 Lab 3 Demo 1   
***************************
 
time=    3.0ns A=f0f03c3c B=bf0ff5f5 Control=0000 || ALUOut=b0003434 Zero_flag=0 Overflow=x Carry_out=x Negative=1
time=    6.0ns A=f0f03c3c B=bf0ff5f5 Control=0001 || ALUOut=fffffdfd Zero_flag=0 Overflow=x Carry_out=x Negative=1
time=    9.0ns A=f0f03c3c B=bf0ff5f5 Control=0011 || ALUOut=4fffc9c9 Zero_flag=0 Overflow=x Carry_out=x Negative=0
time=   12.0ns A=00000001 B=ffffffff Control=0010 || ALUOut=00000000 Zero_flag=1 Overflow=1 Carry_out=1 Negative=0
time=   15.0ns A=6389754f B=ad5624e6 Control=0010 || ALUOut=10df9a35 Zero_flag=0 Overflow=1 Carry_out=1 Negative=0
time=   18.0ns A=00000001 B=ffffffff Control=0010 || ALUOut=00000000 Zero_flag=1 Overflow=1 Carry_out=1 Negative=0
time=   21.0ns A=6389754f B=ad5624e6 Control=0010 || ALUOut=10df9a35 Zero_flag=0 Overflow=1 Carry_out=1 Negative=0
time=   24.0ns A=ffffffff B=ffffffff Control=0010 || ALUOut=fffffffe Zero_flag=0 Overflow=1 Carry_out=1 Negative=1
time=   27.0ns A=00000000 B=00000001 Control=0110 || ALUOut=ffffffff Zero_flag=0 Overflow=1 Carry_out=1 Negative=1
time=   30.0ns A=f9684783 B=f998d562 Control=0110 || ALUOut=ffcf7221 Zero_flag=0 Overflow=1 Carry_out=1 Negative=1
time=   33.0ns A=f0f03c3c B=bf0ff5f5 Control=1100 || ALUOut=00000202 Zero_flag=0 Overflow=x Carry_out=x Negative=0
time=   36.0ns A=89bcde34 B=c53bd687 Control=0111 || ALUOut=764321cb Zero_flag=0 Overflow=x Carry_out=x Negative=0
time=   39.0ns A=f0f03c3c B=bf0ff5f5 Control=1101 || ALUOut=e1e07878 Zero_flag=0 Overflow=x Carry_out=1 Negative=1
time=   42.0ns A=f0f03c3c B=bf0ff5f5 Control=1111 || ALUOut=xxxxxxxx Zero_flag=x Overflow=x Carry_out=x Negative=x
time=   45.0ns A=f0f03c3c B=bf0ff5f5 Control=1010 || ALUOut=b0003231 Zero_flag=0 Overflow=0 Carry_out=1 Negative=1
time=   48.0ns A=f0f03c3c B=bf0ff5f5 Control=1110 || ALUOut=31e04647 Zero_flag=0 Overflow=1 Carry_out=1 Negative=0
$finish called at time : 48 ns : File "C:/Users/kenry/OneDrive - CSULB/2021 - 2022/Spring 2022/CECS 341/Lab 3/lab_3/lab_3.srcs/sim_1/new/alu_tb.v" Line 97
